Macroeconometrics Research Report - The Effects of Increased Unemployment Benefits and Stimulus Checks on the US Economy
…
    Augmented Dickey-Fuller Test

data:  diff(as.vector(govex$`GovSpend in Billions`), k = 3)
Dickey-Fuller = -4.3024, Lag order = 5, p-value = 0.01
alternative hypothesis: stationary

    Augmented Dickey-Fuller Test

data:  diff(as.vector(M2$`M2 Money Supply`), k = 3)
Dickey-Fuller = -5.8067, Lag order = 6, p-value = 0.01
alternative hypothesis: stationary

Preliminary data analysis

# A tibble: 176 × 1
   `Unemployment Rate %`
                   <dbl>
 1                  5.87
 2                  5.7 
 3                  5.87
 4                  5.97
 5                  6.3 
 6                  7.33
 7                  7.67
 8                  7.4 
 9                  7.43
10                  7.4 
# … with 166 more rows
…
